<?xml version="1.0" encoding="UTF-8"?>
<svg width="16px" height="16px" viewBox="0 0 16 16" version="1.1" xmlns="http://www.w3.org/2000/svg" xmlns:xlink="http://www.w3.org/1999/xlink">
    <g id="Symbols" stroke="none" stroke-width="1" fill="none" fill-rule="evenodd">
        <g id="Icon-/-Lens-/-Lens_Black" stroke="#000000" stroke-width="2">
            <circle id="Oval" cx="6.5" cy="6.5" r="5.5"></circle>
            <line x1="15" y1="15" x2="11" y2="11" id="Path-10" stroke-linecap="round"></line>
        </g>
    </g>
</svg>
