<?xml version="1.0" encoding="UTF-8"?>
<svg width="16px" height="16px" viewBox="0 0 16 16" version="1.1" xmlns="http://www.w3.org/2000/svg" xmlns:xlink="http://www.w3.org/1999/xlink">
    <g id="Icon-/-Download-/-Blue" stroke="none" stroke-width="1" fill="none" fill-rule="evenodd" stroke-linecap="round">
        <g id="Group" transform="translate(8.000000, 5.585786) scale(1, -1) rotate(-45.000000) translate(-8.000000, -5.585786) translate(4.000000, 1.585786)" stroke="#50667C" stroke-width="2">
            <polyline id="Path-7" stroke-linejoin="round" transform="translate(5.828427, 2.171573) rotate(-270.000000) translate(-5.828427, -2.171573) " points="3.70710678 4.29289322 4.41421356 0.757359313 7.94974747 0.0502525317"></polyline>
            <line x1="0.171572875" y1="7.82842712" x2="7.24264069" y2="0.757359313" id="Path-11"></line>
        </g>
        <polyline id="Path-15" stroke="#50667C" stroke-width="2" points="1 9 1 15 15 15 15 9"></polyline>
    </g>
</svg>