<?xml version="1.0" encoding="UTF-8"?>
<svg width="280px" height="280px" viewBox="0 0 280 280" version="1.1" xmlns="http://www.w3.org/2000/svg" xmlns:xlink="http://www.w3.org/1999/xlink">
    <defs>
        <polygon id="path-1" points="0 281 211.369 281 211.369 0 0 0"></polygon>
        <polygon id="path-3" points="0 281 211.369 281 211.369 0 0 0"></polygon>
        <polygon id="path-5" points="0 281 211.369 281 211.369 0 0 0"></polygon>
        <polygon id="path-7" points="0 281 211.369 281 211.369 0 0 0"></polygon>
        <polygon id="path-9" points="0 281 211.369 281 211.369 0 0 0"></polygon>
        <polygon id="path-11" points="0 281 211.369 281 211.369 0 0 0"></polygon>
        <polygon id="path-13" points="0 281 211.369 281 211.369 0 0 0"></polygon>
        <polygon id="path-15" points="0 281 211.369 281 211.369 0 0 0"></polygon>
        <polygon id="path-17" points="0 281 211.369 281 211.369 0 0 0"></polygon>
        <polygon id="path-19" points="0 281 211.369 281 211.369 0 0 0"></polygon>
        <polygon id="path-21" points="0 281 211.369 281 211.369 0 0 0"></polygon>
        <polygon id="path-23" points="0 281 211.369 281 211.369 0 0 0"></polygon>
        <polygon id="path-25" points="0 281 211.369 281 211.369 0 0 0"></polygon>
        <polygon id="path-27" points="0 281 211.369 281 211.369 0 0 0"></polygon>
        <polygon id="path-29" points="0 281 211.369 281 211.369 0 0 0"></polygon>
        <polygon id="path-31" points="0 281 211.369 281 211.369 0 0 0"></polygon>
        <polygon id="path-33" points="0 281 211.369 281 211.369 0 0 0"></polygon>
        <polygon id="path-35" points="0 281 211.369 281 211.369 0 0 0"></polygon>
        <polygon id="path-37" points="0 281 211.369 281 211.369 0 0 0"></polygon>
        <polygon id="path-39" points="0 281 211.369 281 211.369 0 0 0"></polygon>
        <polygon id="path-41" points="0 281 211.369 281 211.369 0 0 0"></polygon>
        <polygon id="path-43" points="0 281 211.369 281 211.369 0 0 0"></polygon>
        <polygon id="path-45" points="0 281 211.369 281 211.369 0 0 0"></polygon>
        <polygon id="path-47" points="0 281 211.369 281 211.369 0 0 0"></polygon>
        <polygon id="path-49" points="0 281 211.369 281 211.369 0 0 0"></polygon>
        <polygon id="path-51" points="0 281 211.369 281 211.369 0 0 0"></polygon>
        <polygon id="path-53" points="0 281 211.369 281 211.369 0 0 0"></polygon>
        <polygon id="path-55" points="0 281 211.369 281 211.369 0 0 0"></polygon>
        <polygon id="path-57" points="0 281 211.369 281 211.369 0 0 0"></polygon>
        <polygon id="path-59" points="0 281 211.369 281 211.369 0 0 0"></polygon>
        <polygon id="path-61" points="0 281 211.369 281 211.369 0 0 0"></polygon>
        <polygon id="path-63" points="0 281 211.369 281 211.369 0 0 0"></polygon>
        <polygon id="path-65" points="0 281 211.369 281 211.369 0 0 0"></polygon>
        <polygon id="path-67" points="0 281 211.369 281 211.369 0 0 0"></polygon>
        <polygon id="path-69" points="0 281 211.369 281 211.369 0 0 0"></polygon>
        <polygon id="path-71" points="0 281 211.369 281 211.369 0 0 0"></polygon>
        <polygon id="path-73" points="0 281 211.369 281 211.369 0 0 0"></polygon>
        <polygon id="path-75" points="0 281 211.369 281 211.369 0 0 0"></polygon>
        <polygon id="path-77" points="0 281 211.369 281 211.369 0 0 0"></polygon>
        <polygon id="path-79" points="0 281 211.369 281 211.369 0 0 0"></polygon>
        <polygon id="path-81" points="0 281 211.369 281 211.369 0 0 0"></polygon>
        <polygon id="path-83" points="0 281 211.369 281 211.369 0 0 0"></polygon>
        <polygon id="path-85" points="0 281 211.369 281 211.369 0 0 0"></polygon>
        <polygon id="path-87" points="0 280 211 280 211 0 0 0"></polygon>
    </defs>
    <g id="Illustration-/-Search" stroke="none" stroke-width="1" fill="none" fill-rule="evenodd">
        <path d="M193.6734,249.3313 C193.6734,249.3313 195.5094,263.6043 195.3394,264.9623 C195.1704,266.3203 191.7424,270.3163 188.9304,272.2833 L200.9204,274.1863 L201.8794,249.1033 L193.6734,249.3313 Z" id="Fill-1" fill="#EFC5B4" fill-rule="nonzero"></path>
        <path d="M154.769,248.6328 C154.804,248.4478 154.696,257.5328 154.696,263.9108 C154.696,268.0848 152.633,269.8318 150.107,272.4438 C146.086,276.6018 132.961,275.3588 134.435,279.0268 C135.908,282.6948 160.287,277.0138 160.758,272.8578 C161.229,268.7018 162.026,247.9508 162.026,247.9508 L154.769,248.6328 Z" id="Fill-3" fill="#EFC5B4" fill-rule="nonzero"></path>
        <path d="M160.7578,281 C161.6968,273.443 162.9638,270.813 160.9618,270.813 C159.0028,270.813 159.0618,272.467 157.6608,273.567 C155.0598,275.611 148.9178,277.177 145.9658,273.765 C138.6358,273.938 132.3898,276.807 134.3158,280.96 L160.7578,281 Z" id="Fill-5" fill="#789358" fill-rule="nonzero"></path>
        <path d="M184.6319,279.1205 C184.6319,279.1205 185.9149,272.9405 190.1319,271.8905 C194.7509,270.7395 198.6969,273.6625 199.5429,271.8905 C200.3879,270.1175 201.3639,268.9265 201.3639,268.9265 C201.3639,268.9265 202.5619,269.3065 202.6949,272.2345 C202.8329,275.2675 202.2279,277.3085 201.5499,279.1145 L184.6319,279.1205 Z" id="Fill-7" fill="#789358" fill-rule="nonzero"></path>
        <path d="M160.8559,17.1269 C160.8559,17.1269 149.2179,14.1379 147.8299,26.5229 C146.4419,38.9079 152.7419,40.8299 149.3249,46.8089 C145.9079,52.7879 142.0649,48.3029 141.3169,65.2799 C140.5699,82.2559 179.5039,102.8769 189.7569,92.7999 C223.0949,60.0339 183.5349,46.6869 185.1359,36.6509 C186.7379,26.6139 182.1629,18.0949 176.0769,14.4649 C169.9909,10.8339 162.2439,10.8279 160.8559,17.1269" id="Fill-9" fill="#C6752C" fill-rule="nonzero"></path>
        <g id="Fill-11-Clipped" transform="translate(34.000000, 0.000000)">
            <mask id="mask-2" fill="white">
                <use xlink:href="#path-1"></use>
            </mask>
            <g id="path-1"></g>
            <polygon id="Fill-11" fill="#878787" fill-rule="nonzero" mask="url(#mask-2)" points="48.044 242.348 211.369 242.348 211.369 240.348 48.044 240.348"></polygon>
        </g>
        <g id="Fill-13-Clipped" transform="translate(34.000000, 0.000000)">
            <mask id="mask-4" fill="white">
                <use xlink:href="#path-3"></use>
            </mask>
            <g id="path-1"></g>
            <path d="M117.6991,71.7116 L92.2831,107.6506 C92.2831,107.6506 93.7041,113.9576 97.7421,110.5756 C101.7801,107.1946 123.8941,86.2976 123.8941,86.2976 C123.8941,86.2976 132.9121,64.0836 117.6991,71.7116" id="Fill-13" fill="#BC9F95" fill-rule="nonzero" mask="url(#mask-4)"></path>
        </g>
        <g id="Fill-14-Clipped" transform="translate(34.000000, 0.000000)">
            <mask id="mask-6" fill="white">
                <use xlink:href="#path-5"></use>
            </mask>
            <g id="path-1"></g>
            <path d="M107.6026,61.0827 C109.2986,58.0937 121.4926,56.4127 126.9356,55.1767 C132.6866,53.8707 123.4616,64.9947 118.9306,68.0147 C114.3996,71.0357 109.4146,86.1987 109.4146,86.1987 C109.4146,86.1987 105.7386,64.3667 107.6026,61.0827" id="Fill-14" fill="#000000" fill-rule="nonzero" mask="url(#mask-6)"></path>
        </g>
        <g id="Fill-15-Clipped" transform="translate(34.000000, 0.000000)">
            <mask id="mask-8" fill="white">
                <use xlink:href="#path-7"></use>
            </mask>
            <g id="path-1"></g>
            <path d="M109.4151,112.9732 C109.4151,112.9732 106.4961,147.2822 106.4921,187.9712 C109.5741,205.6182 118.7471,251.4252 120.7691,261.0852 C120.9871,262.1272 121.1221,262.7492 121.1571,262.8692 C125.0471,263.1932 124.9561,263.4332 127.1421,262.7042 C128.0481,262.4022 134.7491,223.7602 133.8431,216.2082 C132.5281,205.2472 128.8941,197.1392 128.8231,189.4742 C128.7231,178.4982 135.9401,169.7362 133.9271,157.3722 C131.8131,144.3832 111.8201,106.6762 109.4151,112.9732" id="Fill-15" fill="#B4D296" fill-rule="nonzero" mask="url(#mask-8)"></path>
        </g>
        <g id="Fill-16-Clipped" transform="translate(34.000000, 0.000000)">
            <mask id="mask-10" fill="white">
                <use xlink:href="#path-9"></use>
            </mask>
            <g id="path-1"></g>
            <path d="M146.8717,113.4766 C146.8717,113.4766 154.2727,119.9926 158.9547,137.0236 C160.8237,143.8226 161.3497,167.1196 159.8247,179.0026 C159.2697,183.3266 159.8307,187.7186 161.4477,191.7666 C164.0287,198.2246 167.2307,202.4966 169.8987,211.4846 C174.8787,228.2566 167.8057,262.4666 167.8057,262.4666 L160.3817,261.2256 L130.5597,157.5786 L109.4147,114.7856 L146.8717,113.4766 Z" id="Fill-16" fill="#B4D296" fill-rule="nonzero" mask="url(#mask-10)"></path>
        </g>
        <g id="Fill-17-Clipped" transform="translate(34.000000, 0.000000)">
            <mask id="mask-12" fill="white">
                <use xlink:href="#path-11"></use>
            </mask>
            <g id="path-1"></g>
            <path d="M150.8057,57.7152 C150.8057,57.7152 151.6527,62.9502 149.8867,69.4202 C148.0427,76.1742 146.8047,81.3622 145.8957,89.8572 C145.0207,98.0352 144.2967,106.0812 146.6707,113.2122 C148.3687,118.3142 107.6027,114.8232 107.6027,114.8232 C107.6027,114.8232 111.4477,104.2522 106.6237,89.6542 C105.3877,85.9142 104.5817,77.8232 109.4147,74.8022 C114.2487,71.7822 125.7267,55.2652 125.7267,55.2652 C125.7267,55.2652 146.4257,55.4492 150.8057,57.7152" id="Fill-17" fill="#000000" fill-rule="nonzero" mask="url(#mask-12)"></path>
        </g>
        <g id="Fill-18-Clipped" transform="translate(34.000000, 0.000000)">
            <mask id="mask-14" fill="white">
                <use xlink:href="#path-13"></use>
            </mask>
            <g id="path-1"></g>
            <path d="M137.2056,43.497 C137.2056,43.497 136.6626,47.919 137.0046,51.25 C137.3666,54.791 140.8236,55.934 137.1296,57.916 C130.1896,61.639 124.3576,56.679 124.3576,56.679 C124.3576,56.679 126.9616,53.63 126.9486,49.409 C126.9356,45.007 123.4956,41.99 128.6466,42.591 C133.7986,43.192 137.5046,40.531 137.2056,43.497" id="Fill-18" fill="#EFC5B4" fill-rule="nonzero" mask="url(#mask-14)"></path>
        </g>
        <g id="Fill-19-Clipped" transform="translate(34.000000, 0.000000)">
            <mask id="mask-16" fill="white">
                <use xlink:href="#path-15"></use>
            </mask>
            <g id="path-1"></g>
            <path d="M133.3792,52.3577 C134.1682,52.1957 137.2052,43.4967 137.2052,43.4967 C137.5042,40.5307 133.7982,43.1917 128.6472,42.5907 C123.4962,41.9907 126.9352,45.0077 126.9482,49.4087 C126.9482,49.4497 126.9442,49.4897 126.9442,49.5317 C127.7402,51.7537 130.0832,53.0337 133.3792,52.3577" id="Fill-19" fill="#BC9F95" fill-rule="nonzero" mask="url(#mask-16)"></path>
        </g>
        <g id="Fill-20-Clipped" transform="translate(34.000000, 0.000000)">
            <mask id="mask-18" fill="white">
                <use xlink:href="#path-17"></use>
            </mask>
            <g id="path-1"></g>
            <path d="M121.8914,24.3493 C121.8914,24.3493 118.2774,36.8293 121.0284,40.9563 C126.3904,48.9993 127.4844,49.2623 131.9984,48.9073 C136.5144,48.5503 140.7054,42.7773 141.7074,36.9133 C142.6634,31.3253 139.6644,32.4413 134.0564,30.2743 C128.8474,28.2633 124.6734,25.9723 124.6734,25.9723 L121.8914,24.3493 Z" id="Fill-20" fill="#EFC5B4" fill-rule="nonzero" mask="url(#mask-18)"></path>
        </g>
        <g id="Fill-21-Clipped" transform="translate(34.000000, 0.000000)">
            <mask id="mask-20" fill="white">
                <use xlink:href="#path-19"></use>
            </mask>
            <g id="path-1"></g>
            <path d="M133.6763,171.2702 C129.2893,153.7922 127.4593,140.4362 127.4413,140.3032 L128.4323,140.1682 C128.4493,140.3012 130.2733,153.6072 134.6463,171.0262 L133.6763,171.2702 Z" id="Fill-21" fill="#29560B" fill-rule="nonzero" mask="url(#mask-20)"></path>
        </g>
        <g id="Fill-22-Clipped" transform="translate(34.000000, 0.000000)">
            <mask id="mask-22" fill="white">
                <use xlink:href="#path-21"></use>
            </mask>
            <g id="path-1"></g>
            <path d="M172.6748,58.904 L170.6748,58.904 C170.6748,50.376 165.8358,46.253 161.9478,42.94 C159.5178,40.869 157.4188,39.081 157.3718,36.695 C157.1458,25.015 153.4188,18.138 145.2878,14.398 C141.3768,12.599 135.4778,11.149 131.7248,12.974 C129.9738,13.828 128.8278,15.348 128.3198,17.494 L126.3728,17.033 C127.0278,14.275 128.5328,12.305 130.8488,11.176 C135.2248,9.046 141.6078,10.505 146.1238,12.582 C154.9218,16.629 159.1318,24.279 159.3718,36.656 C159.4008,38.142 161.0968,39.588 163.2448,41.418 C167.2248,44.808 172.6748,49.453 172.6748,58.904" id="Fill-22" fill="#C6752C" fill-rule="nonzero" mask="url(#mask-22)"></path>
        </g>
        <g id="Fill-23-Clipped" transform="translate(34.000000, 0.000000)">
            <mask id="mask-24" fill="white">
                <use xlink:href="#path-23"></use>
            </mask>
            <g id="path-1"></g>
            <path d="M121.7559,57.8943 C121.2519,57.8943 120.8189,57.5143 120.7629,57.0003 C120.7109,56.5183 120.6969,56.1323 120.6969,55.8933 C120.6969,55.3403 121.1449,54.8933 121.6969,54.8933 C122.2499,54.8933 122.6969,55.3403 122.6969,55.8933 C122.6969,56.0853 122.7099,56.3973 122.7519,56.7883 C122.8109,57.3363 122.4129,57.8303 121.8639,57.8883 C121.8279,57.8923 121.7919,57.8943 121.7559,57.8943 M141.1019,59.3153 C140.9059,59.3153 140.7079,59.2573 140.5349,59.1383 C140.0799,58.8243 139.9659,58.2023 140.2799,57.7473 C140.4629,57.4823 140.6249,57.2243 140.7669,56.9743 C140.9979,56.5663 141.4739,56.3803 141.9059,56.5053 C141.5349,56.3143 141.3099,55.9033 141.3749,55.4683 C141.3819,55.4153 141.3869,55.3683 141.3869,55.3223 C141.3869,54.7753 141.8269,54.3003 142.3739,54.2933 C142.9619,54.2593 143.3719,54.6933 143.3859,55.2393 C143.3869,55.4593 143.3769,55.6073 143.3529,55.7633 C143.2709,56.3103 142.7599,56.6833 142.2159,56.6053 C142.1739,56.5983 142.1319,56.5893 142.0919,56.5793 C142.1049,56.5843 142.1179,56.5913 142.1299,56.5993 C142.6099,56.8723 142.7779,57.4823 142.5059,57.9623 C142.3369,58.2593 142.1429,58.5683 141.9249,58.8833 C141.7319,59.1653 141.4199,59.3153 141.1019,59.3153 M139.154894,61.5943 C138.8939,61.5943 138.6319,61.4933 138.4369,61.2903 C138.0519,60.8933 138.0629,60.2603 138.4589,59.8753 C138.6899,59.6533 138.9079,59.4273 139.1149,59.2023 C139.4869,58.7933 140.1189,58.7663 140.5269,59.1383 C140.9349,59.5113 140.9639,60.1443 140.5899,60.5513 C140.3579,60.8063 140.1099,61.0613 139.8509,61.3133 C139.6559,61.5003 139.4049,61.5943 139.154894,61.5943 M129.2769,65.7303 C129.2649,65.7303 129.2539,65.7303 129.2419,65.7293 C128.8599,65.7163 128.4939,65.6843 128.1449,65.6353 C127.5979,65.5593 127.2159,65.0543 127.2929,64.5073 C127.2939,64.4983 127.2949,64.4903 127.2969,64.4803 C127.2919,64.4923 127.2879,64.5023 127.2829,64.5143 C127.0679,65.0243 126.4809,65.2593 125.9719,65.0453 C125.6159,64.8953 125.2729,64.7183 124.9519,64.5223 C124.4809,64.2333 124.3339,63.6183 124.6219,63.1473 C124.6319,63.1313 124.6419,63.1163 124.6519,63.1013 C124.6389,63.1143 124.6269,63.1253 124.6139,63.1363 C124.1989,63.5013 123.5679,63.4603 123.2029,63.0453 C122.9569,62.7653 122.7249,62.4623 122.5139,62.1463 C122.2089,61.6863 122.3339,61.0653 122.7939,60.7593 C122.8099,60.7483 122.8259,60.7393 122.8429,60.7293 C122.8289,60.7353 122.8149,60.7413 122.7999,60.7473 C122.2839,60.9443 121.7059,60.6843 121.5089,60.1683 C121.3749,59.8173 121.2629,59.4683 121.1689,59.1293 C121.0209,58.5973 121.3319,58.0453 121.8639,57.8973 C122.3959,57.7533 122.9469,58.0603 123.0949,58.5923 C123.1739,58.8743 123.2669,59.1653 123.3779,59.4563 C123.5539,59.9183 123.3639,60.4323 122.9499,60.6743 C123.3879,60.4853 123.9089,60.6303 124.1799,61.0393 C124.3409,61.2823 124.5179,61.5123 124.7049,61.7253 C125.0129,62.0773 125.0319,62.5833 124.7779,62.9523 C125.0979,62.6413 125.5989,62.5743 125.9979,62.8173 C126.2339,62.9613 126.4869,63.0913 126.7519,63.2043 C127.1859,63.3873 127.4229,63.8413 127.3489,64.2873 C127.5109,63.8623 127.9499,63.5853 128.4209,63.6553 C128.7029,63.6943 128.9999,63.7203 129.3099,63.7313 C129.8149,63.7483 130.2189,64.1363 130.2709,64.6243 C130.2689,64.1313 130.6319,63.7013 131.1339,63.6323 C131.4389,63.5903 131.7389,63.5363 132.0349,63.4693 C132.5329,63.3583 133.0239,63.6373 133.1929,64.1023 C133.0709,63.6223 133.3219,63.1133 133.7969,62.9263 C134.0859,62.8123 134.3689,62.6883 134.6459,62.5553 C135.1079,62.3313 135.6589,62.4983 135.9259,62.9243 C135.6979,62.4773 135.8379,61.9193 136.2669,61.6363 C136.5299,61.4633 136.7849,61.2833 137.0309,61.0973 C137.4719,60.7633 138.0979,60.8503 138.4319,61.2903 C138.7649,61.7313 138.6779,62.3583 138.2379,62.6913 C137.9579,62.9043 137.6679,63.1083 137.3679,63.3063 C136.9069,63.6103 136.2869,63.4833 135.9829,63.0223 C135.9779,63.0153 135.9739,63.0083 135.9699,63.0013 C135.9729,63.0083 135.9769,63.0163 135.9799,63.0233 C136.2199,63.5213 136.0099,64.1193 135.5129,64.3583 C135.1929,64.5123 134.8639,64.6563 134.5289,64.7883 C134.0139,64.9893 133.4349,64.7373 133.2319,64.2233 C133.2289,64.2143 133.2259,64.2063 133.2219,64.1983 C133.2249,64.2063 133.2269,64.2163 133.2289,64.2263 C133.3499,64.7653 133.0109,65.2993 132.4719,65.4203 C132.1229,65.4983 131.7679,65.5633 131.4069,65.6133 C130.8589,65.6863 130.3559,65.3063 130.2799,64.7593 C130.2779,64.7483 130.2769,64.7373 130.2759,64.7263 C130.2759,64.7393 130.2759,64.7513 130.2759,64.7643 C130.2569,65.3043 129.8129,65.7303 129.2769,65.7303" id="Fill-23" fill="#FFCE00" fill-rule="nonzero" mask="url(#mask-24)"></path>
        </g>
        <g id="Fill-24-Clipped" transform="translate(34.000000, 0.000000)">
            <mask id="mask-26" fill="white">
                <use xlink:href="#path-25"></use>
            </mask>
            <g id="path-1"></g>
            <path d="M138.9839,127.6941 C138.5999,127.6941 138.2339,127.4711 138.0679,127.0971 C137.5479,125.9191 137.2969,125.1841 137.2859,125.1541 C137.1079,124.6311 137.3869,124.0631 137.9089,123.8841 C138.4319,123.7081 138.9999,123.9861 139.1789,124.5071 C139.1809,124.5141 139.4169,125.1981 139.8989,126.2911 C140.1209,126.7961 139.8919,127.3861 139.3869,127.6091 C139.2559,127.6671 139.1189,127.6941 138.9839,127.6941 M141.2859,132.1381 C140.9449,132.1381 140.6139,131.9651 140.4269,131.6521 C140.0549,131.0321 139.7189,130.4321 139.4169,129.8661 C139.1569,129.3791 139.3409,128.7731 139.8289,128.5131 C140.3169,128.2541 140.9219,128.4371 141.1819,128.9241 C141.4689,129.4641 141.7899,130.0341 142.1429,130.6251 C142.4259,131.0981 142.2719,131.7131 141.7979,131.9971 C141.6369,132.0921 141.4609,132.1381 141.2859,132.1381 M144.1219,136.2581 C143.8269,136.2581 143.5349,136.1291 143.3379,135.8801 C142.9009,135.3301 142.4909,134.7791 142.1049,134.2331 C141.7859,133.7821 141.8929,133.1581 142.3439,132.8401 C142.7959,132.5201 143.4199,132.6281 143.7379,133.0791 C144.1029,133.5951 144.4919,134.1171 144.9049,134.6371 C145.2479,135.0701 145.1749,135.6991 144.7419,136.0421 C144.5589,136.1881 144.3389,136.2581 144.1219,136.2581 M147.5209,139.9221 C147.2799,139.9221 147.0389,139.8361 146.8469,139.6601 C146.3449,139.2021 145.8469,138.7151 145.3679,138.2131 C144.9859,137.8131 145.0009,137.1801 145.4009,136.7981 C145.7979,136.4181 146.4319,136.4301 146.8139,136.8321 C147.2619,137.3001 147.7269,137.7561 148.1949,138.1831 C148.6029,138.5551 148.6319,139.1881 148.2599,139.5951 C148.0629,139.8121 147.7919,139.9221 147.5209,139.9221 M151.5109,142.9201 C151.3349,142.9201 151.1569,142.8741 150.9949,142.7761 C150.4089,142.4231 149.8249,142.0361 149.2589,141.6271 C148.8119,141.3031 148.7109,140.6781 149.0339,140.2301 C149.3579,139.7821 149.9819,139.6821 150.4309,140.0061 C150.9519,140.3821 151.4889,140.7381 152.0279,141.0631 C152.5009,141.3481 152.6529,141.9641 152.3679,142.4361 C152.1799,142.7481 151.8499,142.9201 151.5109,142.9201 M155.9149,144.9551 C155.8109,144.9551 155.7049,144.9391 155.6009,144.9041 C154.9889,144.7021 154.3759,144.4681 153.7789,144.2111 C153.2719,143.9921 153.0379,143.4041 153.2569,142.8961 C153.4759,142.3881 154.0649,142.1561 154.5709,142.3751 C155.1149,142.6091 155.6719,142.8211 156.2289,143.0061 C156.7539,143.1781 157.0379,143.7451 156.8639,144.2691 C156.7259,144.6891 156.3349,144.9551 155.9149,144.9551" id="Fill-24" fill="#000000" fill-rule="nonzero" mask="url(#mask-26)"></path>
        </g>
        <g id="Fill-25-Clipped" transform="translate(34.000000, 0.000000)">
            <mask id="mask-28" fill="white">
                <use xlink:href="#path-27"></use>
            </mask>
            <g id="path-1"></g>
            <path d="M112.2593,132.7331 C112.0973,132.7331 111.9333,132.6941 111.7813,132.6111 C111.2963,132.3461 111.1173,131.7391 111.3823,131.2541 C111.6873,130.6951 111.9693,130.1191 112.2203,129.5401 C112.4403,129.0311 113.0273,128.7981 113.5353,129.0201 C114.0423,129.2401 114.2753,129.8291 114.0553,130.3351 C113.7803,130.9691 113.4713,131.6001 113.1383,132.2121 C112.9563,132.5451 112.6133,132.7331 112.2593,132.7331 M109.4233,136.8371 C109.1943,136.8371 108.9643,136.7591 108.7763,136.5991 C108.3553,136.2421 108.3043,135.6111 108.6613,135.1901 C109.0843,134.6931 109.4833,134.1851 109.8473,133.6801 C110.1713,133.2321 110.7953,133.1311 111.2433,133.4551 C111.6913,133.7781 111.7923,134.4031 111.4693,134.8501 C111.0733,135.3981 110.6423,135.9481 110.1863,136.4851 C109.9883,136.7171 109.7063,136.8371 109.4233,136.8371 M105.8753,140.3501 C105.5913,140.3501 105.3083,140.2291 105.1103,139.9951 C104.7543,139.5721 104.8083,138.9411 105.2313,138.5861 C105.7173,138.1751 106.1993,137.7451 106.6743,137.2931 C107.0733,136.9121 107.7063,136.9261 108.0883,137.3261 C108.4693,137.7251 108.4543,138.3581 108.0543,138.7401 C107.5503,139.2211 107.0363,139.6791 106.5193,140.1151 C106.3313,140.2731 106.1033,140.3501 105.8753,140.3501" id="Fill-25" fill="#000000" fill-rule="nonzero" mask="url(#mask-28)"></path>
        </g>
        <g id="Fill-26-Clipped" transform="translate(34.000000, 0.000000)">
            <mask id="mask-30" fill="white">
                <use xlink:href="#path-29"></use>
            </mask>
            <g id="path-1"></g>
            <path d="M124.8105,121.1199 L124.8105,121.1199 C124.2575,121.1199 123.8105,120.6719 123.8105,120.1189 C123.8105,120.1189 123.8125,116.5449 123.8105,116.3159 L123.8105,116.2939 C123.8105,115.7409 124.2585,115.2939 124.8105,115.2939 C125.8105,115.2939 125.8105,116.2179 125.8115,116.8909 L125.8105,120.1209 C125.8105,120.6729 125.3625,121.1199 124.8105,121.1199" id="Fill-26" fill="#789358" fill-rule="nonzero" mask="url(#mask-30)"></path>
        </g>
        <g id="Fill-27-Clipped" transform="translate(34.000000, 0.000000)">
            <mask id="mask-32" fill="white">
                <use xlink:href="#path-31"></use>
            </mask>
            <g id="path-1"></g>
            <path d="M127.8052,121.1199 L127.8052,121.1199 C127.2522,121.1199 126.8052,120.6719 126.8052,120.1189 C126.8052,120.1189 126.8072,116.5619 126.8052,116.3189 C126.8052,116.3099 126.8052,116.3029 126.8052,116.2939 C126.8052,115.7409 127.2532,115.2939 127.8052,115.2939 C128.8052,115.2939 128.8062,116.2169 128.8062,116.8909 L128.8052,120.1209 C128.8052,120.6729 128.3572,121.1199 127.8052,121.1199" id="Fill-27" fill="#789358" fill-rule="nonzero" mask="url(#mask-32)"></path>
        </g>
        <g id="Fill-28-Clipped" transform="translate(34.000000, 0.000000)">
            <mask id="mask-34" fill="white">
                <use xlink:href="#path-33"></use>
            </mask>
            <g id="path-1"></g>
            <path d="M121.2524,120.8601 L121.2524,120.8601 C120.6994,120.8601 120.2524,120.4121 120.2524,119.8591 C120.2524,119.8591 120.2544,116.3021 120.2524,116.0591 C120.2524,116.0501 120.2524,116.0431 120.2524,116.0341 C120.2524,115.4811 120.7004,115.0341 121.2524,115.0341 C122.2524,115.0341 122.2534,115.9571 122.2534,116.6311 L122.2524,119.8611 C122.2524,120.4131 121.8044,120.8601 121.2524,120.8601" id="Fill-28" fill="#789358" fill-rule="nonzero" mask="url(#mask-34)"></path>
        </g>
        <g id="Fill-29-Clipped" transform="translate(34.000000, 0.000000)">
            <mask id="mask-36" fill="white">
                <use xlink:href="#path-35"></use>
            </mask>
            <g id="path-1"></g>
            <path d="M117.4336,120.8601 L117.4336,120.8601 C116.8806,120.8601 116.4336,120.4121 116.4336,119.8591 C116.4336,119.8591 116.4356,116.2971 116.4336,116.0581 C116.4336,116.0501 116.4336,116.0421 116.4336,116.0341 C116.4336,115.4811 116.8816,115.0341 117.4336,115.0341 C118.4336,115.0341 118.4346,115.9571 118.4346,116.6311 L118.4336,119.8611 C118.4336,120.4131 117.9856,120.8601 117.4336,120.8601" id="Fill-29" fill="#789358" fill-rule="nonzero" mask="url(#mask-36)"></path>
        </g>
        <g id="Fill-30-Clipped" transform="translate(34.000000, 0.000000)">
            <mask id="mask-38" fill="white">
                <use xlink:href="#path-37"></use>
            </mask>
            <g id="path-1"></g>
            <path d="M114.9048,120.5173 L114.9048,120.5173 C114.3518,120.5173 113.9048,120.0693 113.9048,119.5163 C113.9048,119.5163 113.9068,116.0443 113.9048,115.7253 C113.9008,115.5903 113.9228,115.4533 113.9758,115.3193 C114.1808,114.8053 114.7598,114.5533 115.2768,114.7613 C115.9078,115.0143 115.9078,115.0143 115.9048,119.5183 C115.9048,120.0703 115.4568,120.5173 114.9048,120.5173" id="Fill-30" fill="#789358" fill-rule="nonzero" mask="url(#mask-38)"></path>
        </g>
        <g id="Fill-31-Clipped" transform="translate(34.000000, 0.000000)">
            <mask id="mask-40" fill="white">
                <use xlink:href="#path-39"></use>
            </mask>
            <g id="path-1"></g>
            <path d="M111.8867,120.5173 L111.8867,120.5173 C111.3337,120.5173 110.8867,120.0693 110.8867,119.5163 C110.8867,119.5163 110.8887,116.0433 110.8867,115.7253 C110.8827,115.5903 110.9047,115.4523 110.9577,115.3193 C111.1627,114.8053 111.7437,114.5533 112.2587,114.7613 C112.8897,115.0143 112.8897,115.0143 112.8867,119.5183 C112.8867,120.0703 112.4387,120.5173 111.8867,120.5173" id="Fill-31" fill="#789358" fill-rule="nonzero" mask="url(#mask-40)"></path>
        </g>
        <g id="Fill-32-Clipped" transform="translate(34.000000, 0.000000)">
            <mask id="mask-42" fill="white">
                <use xlink:href="#path-41"></use>
            </mask>
            <g id="path-1"></g>
            <path d="M109.4146,120.113 L109.4146,120.113 C108.8616,120.113 108.4146,119.665 108.4146,119.112 C108.4146,119.112 108.4166,115.555 108.4146,115.312 C108.4146,115.303 108.4146,115.296 108.4146,115.287 C108.4146,114.734 108.8626,114.287 109.4146,114.287 C110.4146,114.287 110.4156,115.21 110.4156,115.884 L110.4146,119.114 C110.4146,119.666 109.9666,120.113 109.4146,120.113" id="Fill-32" fill="#789358" fill-rule="nonzero" mask="url(#mask-42)"></path>
        </g>
        <g id="Fill-33-Clipped" transform="translate(34.000000, 0.000000)">
            <mask id="mask-44" fill="white">
                <use xlink:href="#path-43"></use>
            </mask>
            <g id="path-1"></g>
            <path d="M133.7949,121.1199 L133.7949,121.1199 C133.2419,121.1199 132.7949,120.6719 132.7949,120.1189 C132.7949,120.1189 132.7969,116.5569 132.7949,116.3179 C132.7949,116.3099 132.7949,116.3019 132.7949,116.2939 C132.7949,115.7409 133.2429,115.2939 133.7949,115.2939 C134.7949,115.2939 134.7959,116.2169 134.7959,116.8909 L134.7949,120.1209 C134.7949,120.6729 134.3469,121.1199 133.7949,121.1199" id="Fill-33" fill="#789358" fill-rule="nonzero" mask="url(#mask-44)"></path>
        </g>
        <g id="Fill-34-Clipped" transform="translate(34.000000, 0.000000)">
            <mask id="mask-46" fill="white">
                <use xlink:href="#path-45"></use>
            </mask>
            <g id="path-1"></g>
            <path d="M136.79,121.1199 L136.79,121.1199 C136.237,121.1199 135.79,120.6719 135.79,120.1189 C135.79,120.1189 135.792,116.5569 135.79,116.3179 C135.79,116.3099 135.79,116.3019 135.79,116.2939 C135.79,115.7409 136.238,115.2939 136.79,115.2939 C137.79,115.2939 137.791,116.2169 137.791,116.8909 L137.79,120.1209 C137.79,120.6729 137.342,121.1199 136.79,121.1199" id="Fill-34" fill="#789358" fill-rule="nonzero" mask="url(#mask-46)"></path>
        </g>
        <g id="Fill-35-Clipped" transform="translate(34.000000, 0.000000)">
            <mask id="mask-48" fill="white">
                <use xlink:href="#path-47"></use>
            </mask>
            <g id="path-1"></g>
            <path d="M130.8003,121.1199 L130.8003,121.1199 C130.2473,121.1199 129.8003,120.6719 129.8003,120.1189 C129.8003,120.1189 129.8023,116.5449 129.8003,116.3159 L129.8003,116.2939 C129.8003,115.7409 130.2483,115.2939 130.8003,115.2939 C131.8003,115.2939 131.8003,116.2179 131.8013,116.8909 L131.8003,120.1209 C131.8003,120.6729 131.3523,121.1199 130.8003,121.1199" id="Fill-35" fill="#789358" fill-rule="nonzero" mask="url(#mask-48)"></path>
        </g>
        <g id="Fill-36-Clipped" transform="translate(34.000000, 0.000000)">
            <mask id="mask-50" fill="white">
                <use xlink:href="#path-49"></use>
            </mask>
            <g id="path-1"></g>
            <path d="M139.7856,120.7702 L139.7856,120.7702 C139.2326,120.7702 138.7856,120.3222 138.7856,119.7692 C138.7856,119.7692 138.7876,116.1942 138.7856,115.9652 L138.7856,115.9432 C138.7856,115.3902 139.2336,114.9432 139.7856,114.9432 C140.7856,114.9432 140.7856,115.8672 140.7866,116.5412 L140.7856,119.7712 C140.7856,120.3232 140.3376,120.7702 139.7856,120.7702" id="Fill-36" fill="#789358" fill-rule="nonzero" mask="url(#mask-50)"></path>
        </g>
        <g id="Fill-37-Clipped" transform="translate(34.000000, 0.000000)">
            <mask id="mask-52" fill="white">
                <use xlink:href="#path-51"></use>
            </mask>
            <g id="path-1"></g>
            <path d="M143.3711,120.4734 C142.8681,120.4734 142.4351,120.0944 142.3781,119.5824 L141.9671,115.8444 C141.9061,115.2954 142.3031,114.8014 142.8511,114.7414 C143.3981,114.6824 143.8941,115.0764 143.9551,115.6254 L144.3671,119.3644 C144.4271,119.9124 144.0311,120.4074 143.4821,120.4674 C143.4451,120.4714 143.4081,120.4734 143.3711,120.4734" id="Fill-37" fill="#789358" fill-rule="nonzero" mask="url(#mask-52)"></path>
        </g>
        <g id="Fill-38-Clipped" transform="translate(34.000000, 0.000000)">
            <mask id="mask-54" fill="white">
                <use xlink:href="#path-53"></use>
            </mask>
            <g id="path-1"></g>
            <path d="M147.3809,119.4919 C146.9949,119.4919 146.6269,119.2669 146.4629,118.8899 L144.9779,115.4709 C144.7579,114.9639 144.9909,114.3749 145.4969,114.1549 C146.0049,113.9339 146.5919,114.1669 146.8129,114.6739 L148.2979,118.0939 C148.5179,118.5999 148.2849,119.1889 147.7789,119.4089 C147.6489,119.4659 147.5139,119.4919 147.3809,119.4919" id="Fill-38" fill="#789358" fill-rule="nonzero" mask="url(#mask-54)"></path>
        </g>
        <g id="Fill-39-Clipped" transform="translate(34.000000, 0.000000)">
            <mask id="mask-56" fill="white">
                <use xlink:href="#path-55"></use>
            </mask>
            <g id="path-1"></g>
            <path d="M149.9966,117.782 C149.7186,117.782 149.4406,117.667 149.2436,117.44 L146.6276,114.449 C146.2646,114.033 146.3066,113.401 146.7226,113.038 C147.1376,112.674 147.7696,112.716 148.1336,113.133 L150.7486,116.124 C151.1126,116.54 151.0706,117.172 150.6546,117.535 C150.4646,117.701 150.2296,117.782 149.9966,117.782" id="Fill-39" fill="#789358" fill-rule="nonzero" mask="url(#mask-56)"></path>
        </g>
        <g id="Fill-40-Clipped" transform="translate(34.000000, 0.000000)">
            <mask id="mask-58" fill="white">
                <use xlink:href="#path-57"></use>
            </mask>
            <g id="path-1"></g>
            <path d="M121.4966,132.0915 C119.9946,132.0915 118.5026,131.4485 117.4706,130.2045 C117.4056,130.1275 117.3416,130.0455 117.2806,129.9615 L76.1606,85.9175 L77.6226,84.5525 L118.8716,128.7485 C118.9146,128.8105 118.9596,128.8685 119.0076,128.9245 C120.1436,130.2955 122.1806,130.4845 123.5476,129.3515 C125.0566,128.1145 125.3686,125.9175 124.2746,124.3175 L82.6226,79.8145 L84.0826,78.4465 L125.8706,123.1085 C127.6116,125.5665 127.1496,128.9865 124.8186,130.8945 C123.8496,131.6985 122.6696,132.0915 121.4966,132.0915" id="Fill-40" fill="#000000" fill-rule="nonzero" mask="url(#mask-58)"></path>
        </g>
        <g id="Fill-41-Clipped" transform="translate(34.000000, 0.000000)">
            <mask id="mask-60" fill="white">
                <use xlink:href="#path-59"></use>
            </mask>
            <g id="path-1"></g>
            <path d="M150.4566,98.5775 C150.4566,98.5775 160.1286,100.7415 159.9626,101.4775 C159.6786,102.7325 158.7306,104.7915 155.7306,106.5425 C152.7296,108.2935 123.9756,110.0745 121.3556,110.3795 C118.7356,110.6845 113.6276,112.9575 112.3776,113.5125 C111.1266,114.0665 108.3106,111.3385 107.7446,108.8705 C107.3706,107.2375 107.0956,105.7765 107.5236,104.9965 C107.7416,104.5975 108.1436,104.3765 108.8096,104.4025 C110.7776,104.4785 119.4466,105.7735 119.4466,105.7735 C119.4466,105.7735 132.7936,102.1555 139.4536,100.9805 C146.4626,99.7445 150.4566,98.5775 150.4566,98.5775" id="Fill-41" fill="#EFC5B4" fill-rule="nonzero" mask="url(#mask-60)"></path>
        </g>
        <g id="Fill-42-Clipped" transform="translate(34.000000, 0.000000)">
            <mask id="mask-62" fill="white">
                <use xlink:href="#path-61"></use>
            </mask>
            <g id="path-1"></g>
            <path d="M148.1581,56.9117 C148.1581,56.9117 157.0741,57.2387 159.6411,62.8267 C162.2091,68.4147 161.7071,86.5947 161.7071,92.7877 C161.7071,94.3107 163.3331,95.6987 163.1871,97.4637 C163.1051,98.4607 161.1931,98.8697 161.5851,100.5257 C162.1831,103.0437 159.4881,102.7957 159.4881,102.7957 L150.4561,98.5777 C150.4561,98.5777 147.3211,89.7257 146.6781,78.9697 C146.3611,73.6457 148.0091,68.1107 147.9671,64.0587 C147.9241,59.9717 147.6291,57.0627 148.1581,56.9117" id="Fill-42" fill="#000000" fill-rule="nonzero" mask="url(#mask-62)"></path>
        </g>
        <g id="Fill-43-Clipped" transform="translate(34.000000, 0.000000)">
            <mask id="mask-64" fill="white">
                <use xlink:href="#path-63"></use>
            </mask>
            <g id="path-1"></g>
            <path d="M147.2275,84.9958 C146.9795,84.9958 146.7645,84.8108 146.7315,84.5588 C146.1375,79.8898 146.0745,78.8348 146.5115,74.6558 C146.5405,74.3818 146.7715,74.1828 147.0605,74.2108 C147.3355,74.2388 147.5345,74.4848 147.5055,74.7598 C147.0805,78.8318 147.1425,79.8618 147.7245,84.4328 C147.7585,84.7068 147.5645,84.9568 147.2905,84.9918 C147.2695,84.9948 147.2485,84.9958 147.2275,84.9958" id="Fill-43" fill="#7C7C7C" fill-rule="nonzero" mask="url(#mask-64)"></path>
        </g>
        <g id="Fill-44-Clipped" transform="translate(34.000000, 0.000000)">
            <mask id="mask-66" fill="white">
                <use xlink:href="#path-65"></use>
            </mask>
            <g id="path-1"></g>
            <path d="M100.2816,110.9839 L107.7666,104.6929 L108.0046,108.8709 L112.3776,113.5119 C112.3776,113.5119 103.7756,118.7309 102.3386,119.7169 C100.9026,120.7029 100.7796,119.4959 101.2796,118.8549 C101.7796,118.2129 105.8746,114.9039 105.8746,114.9039 C105.8746,114.9039 105.5136,115.0519 104.7266,115.3799 C104.1566,115.6179 103.5486,115.7609 103.0726,115.1959 C102.5276,114.5489 103.5766,113.8749 103.5766,113.8749 C103.5766,113.8749 102.3196,114.4469 101.7826,113.6859 C101.2256,112.8959 101.9976,112.5119 102.2346,111.9289 C100.5056,112.9319 100.0426,111.4729 100.2816,110.9839" id="Fill-44" fill="#EFC5B4" fill-rule="nonzero" mask="url(#mask-66)"></path>
        </g>
        <g id="Fill-45-Clipped" transform="translate(34.000000, 0.000000)">
            <mask id="mask-68" fill="white">
                <use xlink:href="#path-67"></use>
            </mask>
            <g id="path-1"></g>
            <path d="M92.8746,102.3448 L97.5456,98.2418 L104.1586,94.2848 C104.1586,94.2848 105.1306,95.1238 103.5706,96.2938 C102.3166,97.2328 98.4326,100.4278 98.4326,100.4278 L96.3476,103.4848 C96.3476,103.4848 93.1286,104.9968 92.8746,102.3448" id="Fill-45" fill="#EFC5B4" fill-rule="nonzero" mask="url(#mask-68)"></path>
        </g>
        <g id="Fill-46-Clipped" transform="translate(34.000000, 0.000000)">
            <mask id="mask-70" fill="white">
                <use xlink:href="#path-69"></use>
            </mask>
            <g id="path-1"></g>
            <path d="M95.9293,101.7332 C95.9293,101.7332 95.6243,103.4172 95.9743,103.5962 C96.3243,103.7762 96.9483,103.5262 97.8453,103.0282 C98.7413,102.5292 101.3823,100.6932 101.3823,100.6932 C101.3823,100.6932 104.8673,98.3302 105.3773,99.0562 C105.8873,99.7812 104.8393,100.6212 104.3203,101.0922 C103.5863,101.7572 101.7503,102.9432 101.7503,102.9432 L98.0943,106.0562 C98.0943,106.0562 94.9063,107.6142 94.6973,106.9922 C94.4883,106.3702 94.8873,105.5432 94.3613,105.1272 C93.8343,104.7102 92.6893,103.3152 95.9293,101.7332" id="Fill-46" fill="#EFC5B4" fill-rule="nonzero" mask="url(#mask-70)"></path>
        </g>
        <g id="Fill-47-Clipped" transform="translate(34.000000, 0.000000)">
            <mask id="mask-72" fill="white">
                <use xlink:href="#path-71"></use>
            </mask>
            <g id="path-1"></g>
            <path d="M98.0717,106.6957 L102.3097,104.5017 C102.3097,104.5017 105.2337,103.1757 105.5447,103.8197 C105.8547,104.4637 104.9107,104.8197 103.9227,105.5297 C103.5487,105.7987 101.8587,106.9357 101.4307,107.1867 C99.8757,108.0997 98.4057,109.6707 98.1407,109.7437 C97.8757,109.8167 93.3677,109.6417 98.0717,106.6957" id="Fill-47" fill="#EFC5B4" fill-rule="nonzero" mask="url(#mask-72)"></path>
        </g>
        <g id="Fill-48-Clipped" transform="translate(34.000000, 0.000000)">
            <mask id="mask-74" fill="white">
                <use xlink:href="#path-73"></use>
            </mask>
            <g id="path-1"></g>
            <path d="M91.5307,102.9721 C91.6037,100.8511 91.5387,99.0241 91.9027,97.5261 C92.9397,96.0941 94.4747,94.4781 96.5217,92.7871 C96.5217,92.7871 97.7357,93.5231 95.9817,95.4581 C94.6177,96.9641 94.2627,97.5531 94.1767,97.8311 C94.0247,98.3261 94.6207,101.0871 94.6207,101.0871 C94.6207,101.0871 91.5387,104.0391 91.5307,102.9721" id="Fill-48" fill="#EFC5B4" fill-rule="nonzero" mask="url(#mask-74)"></path>
        </g>
        <g id="Fill-49-Clipped" transform="translate(34.000000, 0.000000)">
            <mask id="mask-76" fill="white">
                <use xlink:href="#path-75"></use>
            </mask>
            <g id="path-1"></g>
            <path d="M94.9486,102.4995 L92.9876,98.0585 C92.9876,98.0585 91.6636,97.5505 91.5866,101.3075 C91.5086,105.0635 91.0976,108.4145 91.0976,108.4145 C91.0976,108.4145 91.6606,110.9995 92.7456,111.4475 C93.8316,111.8965 95.5576,112.7915 96.8436,111.8155 C98.1296,110.8395 98.8076,108.3685 99.0166,107.6075 C99.2666,106.6995 98.6776,106.2805 98.2556,105.6475 C97.7386,104.8715 97.3026,103.9515 96.8766,103.5885 C96.1026,102.9295 94.9486,102.4995 94.9486,102.4995" id="Fill-49" fill="#EFC5B4" fill-rule="nonzero" mask="url(#mask-76)"></path>
        </g>
        <g id="Fill-50-Clipped" transform="translate(34.000000, 0.000000)">
            <mask id="mask-78" fill="white">
                <use xlink:href="#path-77"></use>
            </mask>
            <g id="path-1"></g>
            <path d="M108.188,76.2898 C108.103,76.2898 108.016,76.2688 107.937,76.2228 C107.698,76.0828 107.617,75.7768 107.756,75.5388 C107.787,75.4858 110.803,70.2978 111.564,68.8328 C111.692,68.5868 111.993,68.4888 112.239,68.6198 C112.484,68.7468 112.579,69.0488 112.452,69.2938 C111.68,70.7788 108.745,75.8268 108.621,76.0408 C108.528,76.2008 108.36,76.2898 108.188,76.2898" id="Fill-50" fill="#7C7C7C" fill-rule="nonzero" mask="url(#mask-78)"></path>
        </g>
        <g id="Fill-51-Clipped" transform="translate(34.000000, 0.000000)">
            <mask id="mask-80" fill="white">
                <use xlink:href="#path-79"></use>
            </mask>
            <g id="path-1"></g>
            <path d="M104.7271,273.0085 C104.0781,273.0085 103.5501,273.5365 103.5501,274.1865 C103.5501,274.8345 104.0781,275.3625 104.7271,275.3625 C105.3761,275.3625 105.9041,274.8345 105.9041,274.1865 C105.9041,273.5365 105.3761,273.0085 104.7271,273.0085 M104.7271,277.3625 C102.9751,277.3625 101.5501,275.9385 101.5501,274.1865 C101.5501,272.4345 102.9751,271.0085 104.7271,271.0085 C106.4791,271.0085 107.9041,272.4345 107.9041,274.1865 C107.9041,275.9385 106.4791,277.3625 104.7271,277.3625" id="Fill-51" fill="#000000" fill-rule="nonzero" mask="url(#mask-80)"></path>
        </g>
        <g id="Fill-52-Clipped" transform="translate(34.000000, 0.000000)">
            <mask id="mask-82" fill="white">
                <use xlink:href="#path-81"></use>
            </mask>
            <g id="path-1"></g>
            <path d="M158.2798,269.6355 C157.6308,269.6355 157.1028,270.1635 157.1028,270.8125 C157.1028,271.4615 157.6308,271.9895 158.2798,271.9895 C158.9288,271.9895 159.4568,271.4615 159.4568,270.8125 C159.4568,270.1635 158.9288,269.6355 158.2798,269.6355 M158.2798,273.9895 C156.5278,273.9895 155.1028,272.5645 155.1028,270.8125 C155.1028,269.0605 156.5278,267.6355 158.2798,267.6355 C160.0318,267.6355 161.4568,269.0605 161.4568,270.8125 C161.4568,272.5645 160.0318,273.9895 158.2798,273.9895" id="Fill-52" fill="#000000" fill-rule="nonzero" mask="url(#mask-82)"></path>
        </g>
        <g id="Fill-53-Clipped" transform="translate(34.000000, 0.000000)">
            <mask id="mask-84" fill="white">
                <use xlink:href="#path-83"></use>
            </mask>
            <g id="path-1"></g>
            <path d="M136.499,30.947 L137.214,31.81 L142.097,27.763 L141.382,26.9 L136.499,30.947 Z M136.951,34.627 L133.683,30.683 L141.645,24.084 L144.914,28.027 L136.951,34.627 Z" id="Fill-53" fill="#000000" fill-rule="nonzero" mask="url(#mask-84)"></path>
        </g>
        <g id="Fill-54-Clipped" transform="translate(34.000000, 0.000000)">
            <mask id="mask-86" fill="white">
                <use xlink:href="#path-85"></use>
            </mask>
            <g id="path-1"></g>
            <path d="M48.0435,1.9998 C22.6545,1.9998 2.0005,22.6548 2.0005,48.0438 C2.0005,73.4318 22.6545,94.0868 48.0435,94.0868 C73.4325,94.0868 94.0865,73.4318 94.0865,48.0438 C94.0865,22.6548 73.4325,1.9998 48.0435,1.9998 M48.0435,96.0868 C21.5525,96.0868 0.0005,74.5348 0.0005,48.0438 C0.0005,21.5528 21.5525,-0.0002 48.0435,-0.0002 C74.5345,-0.0002 96.0865,21.5528 96.0865,48.0438 C96.0865,74.5348 74.5345,96.0868 48.0435,96.0868" id="Fill-54" fill="#000000" fill-rule="nonzero" mask="url(#mask-86)"></path>
        </g>
        <g id="Fill-55-Clipped" transform="translate(34.000000, 0.000000)">
            <mask id="mask-88" fill="white">
                <use xlink:href="#path-87"></use>
            </mask>
            <g id="path-1"></g>
            <path d="M41.7039675,83.9479858 C23.927056,79.8595872 11.511768,64.2702633 11.511768,46.0343915 L13.5082765,46.0343915 C13.5082765,63.3356014 25.2866783,78.1277722 42.1521836,82.0059217 L41.7039675,83.9479858 Z" id="Fill-55" fill="#000000" fill-rule="nonzero" mask="url(#mask-88)"></path>
        </g>
    </g>
</svg>