{
    "CN": "localhost",
    "key": {
        "algo": "rsa",
        "size": 4096
    },

    "hosts": ["localhost", "192.168.32.1"],
    "names": [
        {
            "C": "DE",
            "ST": "Berlin",
            "L": "Berlin",
            "O": "luca Dev"
        }
    ]
}
